[gd_scene load_steps=5 format=2]

[ext_resource path="res://assets/scripts/text_box.gd" type="Script" id=1]
[ext_resource path="res://assets/scripts/text_box_viewport.gd" type="Script" id=2]
[ext_resource path="res://assets/ui/fonts/dynamic_fonts/32_outlined.tres" type="DynamicFont" id=3]

[sub_resource type="ViewportTexture" id=1]
viewport_path = NodePath("TextBoxViewport")

[node name="TextBox" type="Spatial"]
script = ExtResource( 1 )
text = "Insert your text here."
billboard = false

[node name="TextBoxViewport" type="Viewport" parent="."]
size = Vector2( 384, 26 )
transparent_bg = true
render_target_v_flip = true
script = ExtResource( 2 )

[node name="TextBoxLabel" type="Label" parent="TextBoxViewport"]
margin_right = 384.0
margin_bottom = 26.0
custom_fonts/font = ExtResource( 3 )
custom_colors/font_color = Color( 0.490196, 0.74902, 1, 1 )
text = "Insert your text here."
align = 1
__meta__ = {
"_edit_use_anchors_": false
}

[node name="TextBoxSprite3D" type="Sprite3D" parent="."]
texture = SubResource( 1 )
