[gd_scene load_steps=3 format=2]

[ext_resource path="res://assets/scripts/teleporter.gd" type="Script" id=1]

[sub_resource type="BoxShape" id=1]

[node name="Teleporter" type="Area" groups=[
"teleporter",
]]
collision_layer = 8
collision_mask = 0
script = ExtResource( 1 )
teleport_destination = Vector3( 0, 0, 0 )

[node name="TeleporterCollisionShape" type="CollisionShape" parent="."]
shape = SubResource( 1 )

[node name="DestinationMarker" type="Position3D" parent="."]
