[gd_scene load_steps=4 format=2]

[ext_resource path="res://assets/models/character_arm/character_arm.gltf" type="PackedScene" id=1]
[ext_resource path="res://assets/scripts/character_arm.gd" type="Script" id=2]
[ext_resource path="res://assets/scenes/subscenes/character_arm/slash.mp3" type="AudioStream" id=3]

[node name="CharacterArm" instance=ExtResource( 1 )]
script = ExtResource( 2 )

[node name="Cylinder002" parent="." index="0"]
transform = Transform( 1, 0, 0, 0, -1.19209e-07, -1, 0, 1, -1.19209e-07, 0, 0, 0 )
layers = 2

[node name="AudioStreamPlayer" type="AudioStreamPlayer" parent="." index="2"]
stream = ExtResource( 3 )
volume_db = -8.0
bus = "SFX"
